[{
  "email": "a@b.com",
  "password": "password",
  "roles": [
	  "superAdmin",
	  "organizations_57daf8c5239b461902e23374_Admin",
	  "organizations_5894ad6259012cce006050f5_Admin",
	  "organizations_5894ada359012cce006050f9_Admin",
	  "organizations_5894addf59012cce006050fd_Admin",
	  "organizations_5894ae2959012cce00605101_Admin",
	  "organizations_5894ae9859012cce00605105_Admin",
	  "organizations_5894aec959012cce00605109_Admin",
	  "organizations_5894aef559012cce0060510d_Admin",
	  "organizations_5894af2b59012cce00605111_Admin",
	  "organizations_5894af4f59012cce00605115_Admin",
	  "organizations_5894af8859012cce00605119_Admin",
	  "organizations_5894afb859012cce0060511d_Admin"
  ],
  "name": "John Doe",
  "phoneNumber": "999-999-9999",
  "primaryAddress": {
    "address1": "4617 Hibiscus Valley",
    "city": "Austin",
    "state": "TX",
    "zipCode": "11111"
  },
  "preferredLocale": "en_US"
},
{
  "email": "none@test.com",
  "password": "password",
  "roles": [ "none" ],
  "name": "Normal Guy",
  "phoneNumber": "888-888-8888",
  "primaryAddress": {
    "address1": "333 Taco St",
    "city": "Norman",
    "state": "OK",
    "zipCode": "22222"
  }
}]
